[ {
  "uid" : "7b9555e2b02173a6",
  "name" : "Sorting high low",
  "time" : {
    "start" : 1601756578380,
    "stop" : 1601756588948,
    "duration" : 10568
  },
  "status" : "passed",
  "severity" : "normal"
}, {
  "uid" : "e6c0441fa631ed5c",
  "name" : "Select BMW Model",
  "time" : {
    "start" : 1601756527702,
    "stop" : 1601756544771,
    "duration" : 17069
  },
  "status" : "passed",
  "severity" : "normal"
}, {
  "uid" : "266b9609a5219921",
  "name" : "Leaseplan Demo TestCase",
  "time" : {
    "start" : 1601756500643,
    "stop" : 1601756527702,
    "duration" : 27059
  },
  "status" : "failed",
  "severity" : "normal"
}, {
  "uid" : "16537574cc44c3fd",
  "name" : "Select Price Range",
  "time" : {
    "start" : 1601756544771,
    "stop" : 1601756569736,
    "duration" : 24965
  },
  "status" : "passed",
  "severity" : "normal"
}, {
  "uid" : "9ceeefc7833066ef",
  "name" : "Sorting low high",
  "time" : {
    "start" : 1601756569736,
    "stop" : 1601756578380,
    "duration" : 8644
  },
  "status" : "passed",
  "severity" : "normal"
} ]