[ {
  "data" : {
    "failed" : 1,
    "broken" : 0,
    "skipped" : 0,
    "passed" : 4,
    "unknown" : 0,
    "total" : 5
  }
}, {
  "data" : {
    "failed" : 0,
    "broken" : 0,
    "skipped" : 0,
    "passed" : 5,
    "unknown" : 0,
    "total" : 5
  }
} ]