{
  "uid" : "4b4757e66a1912dae1a509f688f20b0f",
  "name" : "categories",
  "children" : [ {
    "name" : "Product defects",
    "children" : [ {
      "name" : "Expect window to have url\n                \n                Expected: \"https://www.leaseplan.com/en-be/business/showroom\"\n                Received: \"https://www.leaseplan.com/en-be/business/showroom/\"",
      "children" : [ {
        "name" : "Leaseplan Demo TestCase",
        "uid" : "266b9609a5219921",
        "parentUid" : "4450dd674fe044d24a0e7686e9ac17d2",
        "status" : "failed",
        "time" : {
          "start" : 1601756500643,
          "stop" : 1601756527702,
          "duration" : 27059
        },
        "flaky" : false,
        "newFailed" : true,
        "parameters" : [ "chrome-85.0.4183.121" ]
      } ],
      "uid" : "4450dd674fe044d24a0e7686e9ac17d2"
    } ],
    "uid" : "8fb3a91ba5aaf9de24cc8a92edc82b5d"
  } ]
}