{
  "uid" : "83edc06c07f9ae9e47eb6dd1b683e4e2",
  "name" : "packages",
  "children" : [ {
    "name" : "Load Leaseplan page",
    "children" : [ {
      "name" : "Leaseplan Demo TestCase",
      "uid" : "266b9609a5219921",
      "parentUid" : "754eff77fa9bf8c840af4f5138b88058",
      "status" : "failed",
      "time" : {
        "start" : 1601756500643,
        "stop" : 1601756527702,
        "duration" : 27059
      },
      "flaky" : false,
      "newFailed" : true,
      "parameters" : [ "chrome-85.0.4183.121" ]
    }, {
      "name" : "Select BMW Model",
      "uid" : "e6c0441fa631ed5c",
      "parentUid" : "754eff77fa9bf8c840af4f5138b88058",
      "status" : "passed",
      "time" : {
        "start" : 1601756527702,
        "stop" : 1601756544771,
        "duration" : 17069
      },
      "flaky" : false,
      "newFailed" : false,
      "parameters" : [ "chrome-85.0.4183.121" ]
    }, {
      "name" : "Select Price Range",
      "uid" : "16537574cc44c3fd",
      "parentUid" : "754eff77fa9bf8c840af4f5138b88058",
      "status" : "passed",
      "time" : {
        "start" : 1601756544771,
        "stop" : 1601756569736,
        "duration" : 24965
      },
      "flaky" : false,
      "newFailed" : false,
      "parameters" : [ "chrome-85.0.4183.121" ]
    }, {
      "name" : "Sorting low high",
      "uid" : "9ceeefc7833066ef",
      "parentUid" : "754eff77fa9bf8c840af4f5138b88058",
      "status" : "passed",
      "time" : {
        "start" : 1601756569736,
        "stop" : 1601756578380,
        "duration" : 8644
      },
      "flaky" : false,
      "newFailed" : false,
      "parameters" : [ "chrome-85.0.4183.121" ]
    }, {
      "name" : "Sorting high low",
      "uid" : "7b9555e2b02173a6",
      "parentUid" : "754eff77fa9bf8c840af4f5138b88058",
      "status" : "passed",
      "time" : {
        "start" : 1601756578380,
        "stop" : 1601756588948,
        "duration" : 10568
      },
      "flaky" : false,
      "newFailed" : false,
      "parameters" : [ "chrome-85.0.4183.121" ]
    } ],
    "uid" : "754eff77fa9bf8c840af4f5138b88058"
  } ]
}