{
  "9bdcc3183ba22eb95d2ba6c8e624813c" : {
    "statistic" : {
      "failed" : 1,
      "broken" : 0,
      "skipped" : 0,
      "passed" : 1,
      "unknown" : 0,
      "total" : 2
    },
    "items" : [ {
      "uid" : "266b9609a5219921",
      "status" : "failed",
      "statusDetails" : "Expect window to have url\n                \n                Expected: \"https://www.leaseplan.com/en-be/business/showroom\"\n                Received: \"https://www.leaseplan.com/en-be/business/showroom/\"",
      "time" : {
        "start" : 1601756500643,
        "stop" : 1601756527702,
        "duration" : 27059
      }
    }, {
      "uid" : "a041b5ed9d50184e",
      "status" : "passed",
      "time" : {
        "start" : 1601731249456,
        "stop" : 1601731268995,
        "duration" : 19539
      }
    } ]
  },
  "a700050d9ee2c3aa7faa69f3f93a6236" : {
    "statistic" : {
      "failed" : 0,
      "broken" : 0,
      "skipped" : 0,
      "passed" : 2,
      "unknown" : 0,
      "total" : 2
    },
    "items" : [ {
      "uid" : "16537574cc44c3fd",
      "status" : "passed",
      "time" : {
        "start" : 1601756544771,
        "stop" : 1601756569736,
        "duration" : 24965
      }
    }, {
      "uid" : "71534a3a81ac0782",
      "status" : "passed",
      "time" : {
        "start" : 1601731285992,
        "stop" : 1601731310871,
        "duration" : 24879
      }
    } ]
  },
  "ee213ec18c453364bafa77af59da4c70" : {
    "statistic" : {
      "failed" : 0,
      "broken" : 0,
      "skipped" : 0,
      "passed" : 2,
      "unknown" : 0,
      "total" : 2
    },
    "items" : [ {
      "uid" : "7b9555e2b02173a6",
      "status" : "passed",
      "time" : {
        "start" : 1601756578380,
        "stop" : 1601756588948,
        "duration" : 10568
      }
    }, {
      "uid" : "55c3899e23533be0",
      "status" : "passed",
      "time" : {
        "start" : 1601731319478,
        "stop" : 1601731330046,
        "duration" : 10568
      }
    } ]
  },
  "32d8c1050f5004c28b98b98bc3e3c370" : {
    "statistic" : {
      "failed" : 0,
      "broken" : 0,
      "skipped" : 0,
      "passed" : 2,
      "unknown" : 0,
      "total" : 2
    },
    "items" : [ {
      "uid" : "e6c0441fa631ed5c",
      "status" : "passed",
      "time" : {
        "start" : 1601756527702,
        "stop" : 1601756544771,
        "duration" : 17069
      }
    }, {
      "uid" : "6bd150ac61dc521a",
      "status" : "passed",
      "time" : {
        "start" : 1601731268995,
        "stop" : 1601731285992,
        "duration" : 16997
      }
    } ]
  },
  "1fe4c8300bbafa9e6733948e1e723b09" : {
    "statistic" : {
      "failed" : 0,
      "broken" : 0,
      "skipped" : 0,
      "passed" : 2,
      "unknown" : 0,
      "total" : 2
    },
    "items" : [ {
      "uid" : "9ceeefc7833066ef",
      "status" : "passed",
      "time" : {
        "start" : 1601756569736,
        "stop" : 1601756578380,
        "duration" : 8644
      }
    }, {
      "uid" : "20ca1c50080d64bc",
      "status" : "passed",
      "time" : {
        "start" : 1601731310871,
        "stop" : 1601731319478,
        "duration" : 8607
      }
    } ]
  }
}